{
  "$jason": {
    "head": {},
    "body": {
      "sections": [
        {
          "items": [
            {
              "type": "html",
              "style": {
                "height": "100%",
                "witdh": "100%"
              },
              "text": "<iframe src='https://discordapp.com/widget?id=398417280666566656&theme=dark' width='350' height='500' allowtransparency='true' frameborder='0'></iframe>"
            },
            {
              "type": "label",
              "text": "End of app"
            }
          ]
        }
      ]
    }
  }
}