{
  "$jason": {
    "head": {
      "title": "Eliza",
      "actions": {
        "$load": {
          "type": "$set",
          "options": {
            "members": [
              "AJames",
              "John",
              "Fisher",
              "Gerrer"
            ]
          },
          "success": {
            "type": "$render"
          }
        },
        "$pull": {
          "type": "$reload"
        },
        "say": {
          "type": "$set",
          "options": {
            "members": "{{var z = $get.members; z.push($get.message); return z;}}"
          },
          "success": {
            "type": "$render"
          }
        },
        "say_auto": {
          "type": "$set",
          "options": {
            "members": "{{var z = $get.members; for(i=0; i<10;i++){z.push('Name'+i);}; return z;}}"
          },
          "success": {
            "type": "$render"
          }
        }
      },
      "templates": {
        "body": {
          "style": {
            "border": "none",
            "align": "bottom"
          },
          "sections": [
            {
              "items": {
                "{{#each $get.members}}": {
                  "type": "label",
                  "text": "{{this}}",
                  "style": {
                    "size": 30
                  }
                }
              }
            },
            {
              "items": [
                {
                  "type": "label",
                  "text": "Add a random name",
                  "action": {
                    "trigger": "say_auto"
                  }
                },
                {
                  "type": "label",
                  "text": "A helpful message"
                }
              ]
            }
          ],
          "footer": {
            "input": {
              "name": "message",
              "right": {
                "action": {
                  "trigger": "say"
                }
              }
            }
          }
        }
      }
    }
  }
}